station_id,name,dock_n,length,width,place,lat,long,h
481,Museu da Cidade,20,15.5,1,"Campo Grande 245, 1700-091 Lisboa",38.7582528,-9.1563285,69m
484,Telheiras Metro,22,17,1,"R. Prof. Vieira de Almeida, 1600-236 Lisboa",38.7607264,-9.1666739,36m
